[gd_scene load_steps=5 format=2]

[ext_resource path="res://states/state.tscn" type="PackedScene" id=1]
[ext_resource path="res://rooms/test/test_room.tscn" type="PackedScene" id=2]
[ext_resource path="res://gui/hud/hud.tscn" type="PackedScene" id=3]
[ext_resource path="res://states/gameplay/gameplay_state.gd" type="Script" id=4]

[node name="GameplayState" instance=ExtResource( 1 )]
script = ExtResource( 4 )

[node name="TestRoom" parent="." index="0" instance=ExtResource( 2 )]

[node name="HUD" parent="." index="1" instance=ExtResource( 3 )]
